<svg width="111" height="111" viewBox="0 0 111 111" fill="none" xmlns="http://www.w3.org/2000/svg">
<path fill-rule="evenodd" clip-rule="evenodd" d="M55.4997 0.0887451C24.9042 0.0887451 0.0830078 24.9099 0.0830078 55.5054C0.0830078 86.1009 24.9042 110.922 55.4997 110.922C86.0952 110.922 110.916 86.1009 110.916 55.5054C110.916 24.9099 86.0952 0.0887451 55.4997 0.0887451ZM8.60865 55.5054C8.60865 29.6185 29.6128 8.61439 55.4997 8.61439C81.3866 8.61439 102.391 29.6185 102.391 55.5054C102.391 81.3923 81.3866 102.396 55.4997 102.396C29.6128 102.396 8.60865 81.3923 8.60865 55.5054ZM71.8353 73.5947C69.481 73.6039 67.5651 71.7028 67.5559 69.3485L67.4789 49.5512L42.3094 74.7207C40.6447 76.3854 37.9456 76.3854 36.2809 74.7207C34.6161 73.056 34.6161 70.3569 36.2809 68.6922L61.444 43.529L41.6594 43.452C39.3051 43.4429 37.404 41.5269 37.4132 39.1727C37.4224 36.8184 39.3383 34.9173 41.6926 34.9265L71.7185 35.0433C74.0598 35.0524 75.9556 36.9481 75.9647 39.2895L76.0815 69.3154C76.0906 71.6696 74.1895 73.5856 71.8353 73.5947Z" fill="red"/>
</svg>
